-- Merging decision tree log ---
manifest
ADDED from /home/tharicki.pereira/.pub-cache/hosted/pub.dartlang.org/fluttertoast-4.0.1/android/src/main/AndroidManifest.xml:1:1-3:12
INJECTED from /home/tharicki.pereira/.pub-cache/hosted/pub.dartlang.org/fluttertoast-4.0.1/android/src/main/AndroidManifest.xml:1:1-3:12
INJECTED from /home/tharicki.pereira/.pub-cache/hosted/pub.dartlang.org/fluttertoast-4.0.1/android/src/main/AndroidManifest.xml:1:1-3:12
	package
		ADDED from /home/tharicki.pereira/.pub-cache/hosted/pub.dartlang.org/fluttertoast-4.0.1/android/src/main/AndroidManifest.xml:2:3-55
		INJECTED from /home/tharicki.pereira/.pub-cache/hosted/pub.dartlang.org/fluttertoast-4.0.1/android/src/main/AndroidManifest.xml
		INJECTED from /home/tharicki.pereira/.pub-cache/hosted/pub.dartlang.org/fluttertoast-4.0.1/android/src/main/AndroidManifest.xml
	xmlns:android
		ADDED from /home/tharicki.pereira/.pub-cache/hosted/pub.dartlang.org/fluttertoast-4.0.1/android/src/main/AndroidManifest.xml:1:11-69
uses-sdk
INJECTED from /home/tharicki.pereira/.pub-cache/hosted/pub.dartlang.org/fluttertoast-4.0.1/android/src/main/AndroidManifest.xml reason: use-sdk injection requested
INJECTED from /home/tharicki.pereira/.pub-cache/hosted/pub.dartlang.org/fluttertoast-4.0.1/android/src/main/AndroidManifest.xml
INJECTED from /home/tharicki.pereira/.pub-cache/hosted/pub.dartlang.org/fluttertoast-4.0.1/android/src/main/AndroidManifest.xml
	android:minSdkVersion
		INJECTED from /home/tharicki.pereira/.pub-cache/hosted/pub.dartlang.org/fluttertoast-4.0.1/android/src/main/AndroidManifest.xml
		ADDED from /home/tharicki.pereira/.pub-cache/hosted/pub.dartlang.org/fluttertoast-4.0.1/android/src/main/AndroidManifest.xml
		INJECTED from /home/tharicki.pereira/.pub-cache/hosted/pub.dartlang.org/fluttertoast-4.0.1/android/src/main/AndroidManifest.xml
